[
    {
        "method": [
            "GET",
            "POST"
        ],
        "origin": [
            "https://*.cloud.google.com",
            "https://*.corp.google.com",
            "https://*.corp.google.com:*"
        ],
        "responseHeader": [
            "Access-Control-Allow-Origin"
        ]
    }
]